group26_lab5_part4/group26_lab5_part4/cpu_wavedata.vcd
$date
	Wed Feb 02 11:06:51 2022
$end
$version
	Icarus Verilog
$end
$timescale
	1s
$end
$scope module cpu_tb $end
$var wire 32 ! PC [31:0] $end
$var wire 32 " INSTRUCTION [31:0] $end
$var reg 1 # CLK $end
$var reg 1 $ RESET $end
$scope module mycpu $end
$var wire 1 # CLK $end
$var wire 32 % INSTRUCTION [31:0] $end
$var wire 1 & ISB $end
$var wire 1 ' ISJ $end
$var wire 1 $ RESET $end
$var wire 1 ( ZERO $end
$var wire 3 ) registerRT [2:0] $end
$var wire 3 * registerRS [2:0] $end
$var wire 3 + registerRD [2:0] $end
$var wire 1 , WRITEENABLE $end
$var wire 8 - TWOSCOMOUT [7:0] $end
$var wire 8 . TARGET [7:0] $end
$var wire 32 / PCnext [31:0] $end
$var wire 32 0 PC [31:0] $end
$var wire 8 1 OUT2 [7:0] $end
$var wire 8 2 OUT1 [7:0] $end
$var wire 8 3 OPCODE [7:0] $end
$var wire 32 4 MUX3OUT [31:0] $end
$var wire 8 5 MUX2OUT [7:0] $end
$var wire 8 6 MUX1OUT [7:0] $end
$var wire 1 7 ISSUB $end
$var wire 1 8 ISJUMP $end
$var wire 1 9 ISIMMEDIATE $end
$var wire 1 : ISBRANCH $end
$var wire 8 ; IMMEDIATE [7:0] $end
$var wire 32 < Addr_Out [31:0] $end
$var wire 1 = ALUZERO $end
$var wire 8 > ALURESULT [7:0] $end
$var wire 3 ? ALUOP [2:0] $end
$scope module addr $end
$var wire 32 @ INP2 [31:0] $end
$var wire 32 A INP1 [31:0] $end
$var reg 32 B OUT [31:0] $end
$upscope $end
$scope module baddr $end
$var wire 32 C INP1 [31:0] $end
$var wire 32 D INP2 [31:0] $end
$var reg 32 E OUT [31:0] $end
$upscope $end
$scope module cu $end
$var wire 8 F OPCODE [7:0] $end
$var reg 3 G ALUOP [2:0] $end
$var reg 1 : ISBRANCH $end
$var reg 1 9 ISIMMEDIATE $end
$var reg 1 8 ISJUMP $end
$var reg 1 7 ISSUB $end
$var reg 1 , WRITEENABLE $end
$upscope $end
$scope module mux_1 $end
$var wire 1 7 SEL $end
$var wire 8 H IN2 [7:0] $end
$var wire 8 I IN1 [7:0] $end
$var reg 8 J OUT [7:0] $end
$upscope $end
$scope module mux_2 $end
$var wire 8 K IN1 [7:0] $end
$var wire 8 L IN2 [7:0] $end
$var wire 1 9 SEL $end
$var reg 8 M OUT [7:0] $end
$upscope $end
$scope module mux_3 $end
$var wire 32 N IN1 [31:0] $end
$var wire 32 O IN2 [31:0] $end
$var wire 1 ' SEL $end
$var reg 32 P OUT [31:0] $end
$upscope $end
$scope module myalu $end
$var wire 8 Q DATA2 [7:0] $end
$var wire 3 R SELECT [2:0] $end
$var wire 1 = ZERO $end
$var wire 8 S OR_WIRE [7:0] $end
$var wire 8 T FORWARD_WIRE [7:0] $end
$var wire 8 U DATA1 [7:0] $end
$var wire 8 V AND_WIRE [7:0] $end
$var wire 8 W ADD_WIRE [7:0] $end
$var reg 8 X RESULT [7:0] $end
$scope module add1 $end
$var wire 8 Y DATA2 [7:0] $end
$var wire 8 Z DATA1 [7:0] $end
$var reg 8 [ RESULT [7:0] $end
$upscope $end
$scope module and1 $end
$var wire 8 \ DATA2 [7:0] $end
$var wire 8 ] DATA1 [7:0] $end
$var reg 8 ^ RESULT [7:0] $end
$upscope $end
$scope module forward1 $end
$var wire 8 _ DATA2 [7:0] $end
$var reg 8 ` RESULT [7:0] $end
$upscope $end
$scope module or1 $end
$var wire 8 a DATA2 [7:0] $end
$var wire 8 b DATA1 [7:0] $end
$var reg 8 c RESULT [7:0] $end
$upscope $end
$upscope $end
$scope module myregfile $end
$var wire 1 # CLK $end
$var wire 8 d IN [7:0] $end
$var wire 3 e INADDRESS [2:0] $end
$var wire 8 f OUT1 [7:0] $end
$var wire 3 g OUT1ADDRESS [2:0] $end
$var wire 8 h OUT2 [7:0] $end
$var wire 3 i OUT2ADDRESS [2:0] $end
$var wire 1 $ RESET $end
$var wire 1 , WRITE $end
$var integer 32 j i [31:0] $end
$upscope $end
$scope module pc $end
$var wire 1 # CLK $end
$var wire 32 k PCnext [31:0] $end
$var wire 1 $ RESET $end
$var reg 32 l PC [31:0] $end
$upscope $end
$scope module tc $end
$var wire 8 m IN [7:0] $end
$var reg 8 n RESULT [7:0] $end
$upscope $end
$upscope $end
$upscope $end
$enddefinitions $end
#0
$dumpvars
bx n
bx m
bx l
bx k
bx j
bx i
bx h
bx g
bx f
bx e
bx d
bx c
bx b
bx a
bx `
bx _
bx ^
bx ]
bx \
bx [
bx Z
bx Y
bx X
bx W
bx V
bx U
bx T
bx S
bx R
bx Q
bx P
bx O
bx N
bx M
bx L
bx K
bx J
bx I
bx H
bx G
bx F
bx E
bx00 D
bx C
bx B
bx A
b100 @
bx ?
bx >
x=
bx <
bx ;
x:
x9
x8
x7
bx 6
bx 5
bx 4
bx 3
bx 2
bx 1
bx 0
bx /
bx .
bx -
x,
bx +
bx *
bx )
z(
x'
x&
bx %
0$
0#
bx "
bx !
$end
#2
1$
#4
1#
#5
b0 !
b0 0
b0 A
b0 l
b1000 j
#6
b100 /
b100 B
b100 C
b100 N
0$
#7
b0 )
b0 g
b101 *
b101 i
b100 +
b100 e
b101 5
b101 M
b101 Q
b101 Y
b101 \
b101 _
b101 a
b0 3
b0 F
b101 ;
b101 L
b10000 D
b100 .
b1000000000000000101 "
b1000000000000000101 %
#8
0'
0=
0&
b101 >
b101 X
b101 d
b100 4
b100 P
b100 k
bx1x1 S
bx1x1 c
b0x0x V
b0x0x ^
b101 T
b101 `
0:
08
1,
07
19
b0 ?
b0 G
b0 R
b10100 <
b10100 E
b10100 O
0#
#9
b0 6
b0 J
b0 K
b101 W
b101 [
b0 2
b0 U
b0 Z
b0 ]
b0 b
b0 f
b0 1
b0 I
b0 h
b0 m
#10
b0 V
b0 ^
b101 S
b101 c
b0 -
b0 H
b0 n
#12
1#
#13
b100 !
b100 0
b100 A
b100 l
#14
b1000 4
b1000 P
b1000 k
b1000 /
b1000 B
b1000 C
b1000 N
#15
b1 *
b1 i
b10 +
b10 e
b1001 5
b1001 M
b1001 Q
b1001 Y
b1001 \
b1001 _
b1001 a
b1001 ;
b1001 L
b1000 D
b10 .
b100000000000001001 "
b100000000000001001 %
#16
b1001 >
b1001 X
b1001 d
b1001 S
b1001 c
b1001 T
b1001 `
b10000 <
b10000 E
b10000 O
0#
#17
b1001 W
b1001 [
#20
1#
#21
b1000 !
b1000 0
b1000 A
b1000 l
#22
b1100 4
b1100 P
b1100 k
b1100 /
b1100 B
b1100 C
b1100 N
#23
b100 )
b100 g
b10 *
b10 i
b110 +
b110 e
b10 5
b10 M
b10 Q
b10 Y
b10 \
b10 _
b10 a
b10 3
b10 F
b10 ;
b10 L
b11000 D
b110 .
b10000001100000010000000010 "
b10000001100000010000000010 %
#24
b0 5
b0 M
b0 Q
b0 Y
b0 \
b0 _
b0 a
b10 S
b10 c
b10 T
b10 `
09
b1 ?
b1 G
b1 R
b100100 <
b100100 E
b100100 O
0#
#25
b1001 5
b1001 M
b1001 Q
b1001 Y
b1001 \
b1001 _
b1001 a
b101 >
b101 X
b101 d
b1001 6
b1001 J
b1001 K
b101 S
b101 c
b0 T
b0 `
b101 W
b101 [
b101 2
b101 U
b101 Z
b101 ]
b101 b
b101 f
b1001 1
b1001 I
b1001 h
b1001 m
#26
b1 V
b1 ^
b1101 S
b1101 c
b1001 T
b1001 `
b11110111 -
b11110111 H
b11110111 n
#27
b1110 >
b1110 X
b1110 d
b1110 W
b1110 [
#28
1#
#29
b1100 !
b1100 0
b1100 A
b1100 l
#30
b10000 4
b10000 P
b10000 k
b10000 /
b10000 B
b10000 C
b10000 N
#31
b0 )
b0 g
b110 *
b110 i
b0 +
b0 e
b1 3
b1 F
b110 ;
b110 L
b0 D
b0 .
b1000000000000000000000110 "
b1000000000000000000000110 %
#32
b1001 >
b1001 X
b1001 d
b0 ?
b0 G
b0 R
b10000 <
b10000 E
b10000 O
0#
#33
b1110 5
b1110 M
b1110 Q
b1110 Y
b1110 \
b1110 _
b1110 a
b1110 6
b1110 J
b1110 K
b0 2
b0 U
b0 Z
b0 ]
b0 b
b0 f
b1110 1
b1110 I
b1110 h
b1110 m
#34
b1110 >
b1110 X
b1110 d
b1110 T
b1110 `
b1110 S
b1110 c
b0 V
b0 ^
b11110010 -
b11110010 H
b11110010 n
#36
1#
#37
b10000 !
b10000 0
b10000 A
b10000 l
#38
b10100 4
b10100 P
b10100 k
b10100 /
b10100 B
b10100 C
b10100 N
#39
b1 *
b1 i
b1 +
b1 e
b0 3
b0 F
b1 ;
b1 L
b100 D
b1 .
b1110 2
b1110 U
b1110 Z
b1110 ]
b1110 b
b1110 f
b10000000000000001 "
b10000000000000001 %
#40
b1 5
b1 M
b1 Q
b1 Y
b1 \
b1 _
b1 a
19
b1110 V
b1110 ^
b11000 <
b11000 E
b11000 O
0#
#41
b0 6
b0 J
b0 K
b1 >
b1 X
b1 d
b1111 S
b1111 c
b0 V
b0 ^
b1 T
b1 `
b0 1
b0 I
b0 h
b0 m
b1111 W
b1111 [
#42
b0 -
b0 H
b0 n
#44
1#
#45
b10100 !
b10100 0
b10100 A
b10100 l
#46
b11000 4
b11000 P
b11000 k
b11000 /
b11000 B
b11000 C
b11000 N
#47
b10 )
b10 g
b10 +
b10 e
b10 3
b10 F
b1000 D
b10 .
b1 6
b1 J
b1 K
b10000000100000001000000001 "
b10000000100000001000000001 %
b1 1
b1 I
b1 h
b1 m
#48
b1111 >
b1111 X
b1111 d
09
b1 ?
b1 G
b1 R
b11111111 -
b11111111 H
b11111111 n
b100000 <
b100000 E
b100000 O
0#
#49
b1001 2
b1001 U
b1001 Z
b1001 ]
b1001 b
b1001 f
#50
b1 V
b1 ^
b1001 S
b1001 c
#51
b1010 >
b1010 X
b1010 d
b1010 W
b1010 [
#52
1#
#53
b11000 !
b11000 0
b11000 A
b11000 l
#54
b11100 4
b11100 P
b11100 k
b11100 /
b11100 B
b11100 C
b11100 N
#55
b0 )
b0 g
b110 *
b110 i
b11 +
b11 e
b111 3
b111 F
b110 ;
b110 L
b11111111111111111111111111101100 D
b11111011 .
b1010 2
b1010 U
b1010 Z
b1010 ]
b1010 b
b1010 f
b111111110110000000000000110 "
b111111110110000000000000110 %
#56
b1000 4
b1000 P
b1000 k
x'
b11111111 5
b11111111 M
b11111111 Q
b11111111 Y
b11111111 \
b11111111 _
b11111111 a
x&
b11111111 6
b11111111 J
b11111111 K
1:
0,
17
b1011 S
b1011 c
b0 V
b0 ^
b1000 <
b1000 E
b1000 O
0#
#57
b1001 >
b1001 X
b1001 d
b1110 V
b1110 ^
b11111111 S
b11111111 c
b11111111 T
b11111111 `
b1110 2
b1110 U
b1110 Z
b1110 ]
b1110 b
b1110 f
b1110 1
b1110 I
b1110 h
b1110 m
b1001 W
b1001 [
#58
b11110010 5
b11110010 M
b11110010 Q
b11110010 Y
b11110010 \
b11110010 _
b11110010 a
b11110010 6
b11110010 J
b11110010 K
b11110010 -
b11110010 H
b11110010 n
#59
1=
b0 >
b0 X
b0 d
b11111110 S
b11111110 c
b10 V
b10 ^
b11110010 T
b11110010 `
b0 W
b0 [
#60
1#
#61
b1000 !
b1000 0
b1000 A
b1000 l
#62
b1100 /
b1100 B
b1100 C
b1100 N
#63
b100 )
b100 g
b10 *
b10 i
b110 +
b110 e
b10 3
b10 F
b10 ;
b10 L
b11000 D
b110 .
b10000001100000010000000010 "
b10000001100000010000000010 %
#64
0'
b1110 5
b1110 M
b1110 Q
b1110 Y
b1110 \
b1110 _
b1110 a
0&
b1110 6
b1110 J
b1110 K
b1100 4
b1100 P
b1100 k
0:
1,
07
b100100 <
b100100 E
b100100 O
0#
#65
b1010 5
b1010 M
b1010 Q
b1010 Y
b1010 \
b1010 _
b1010 a
b1010 6
b1010 J
b1010 K
b100 V
b100 ^
b1111 S
b1111 c
b1110 T
b1110 `
b101 2
b101 U
b101 Z
b101 ]
b101 b
b101 f
b1010 1
b1010 I
b1010 h
b1010 m
#66
0=
b1111 >
b1111 X
b1111 d
b0 V
b0 ^
b1010 T
b1010 `
b11110110 -
b11110110 H
b11110110 n
b1111 W
b1111 [
#68
1#
#69
b1100 !
b1100 0
b1100 A
b1100 l
#70
b10000 4
b10000 P
b10000 k
b10000 /
b10000 B
b10000 C
b10000 N
#71
b0 )
b0 g
b110 *
b110 i
b0 +
b0 e
b1 3
b1 F
b110 ;
b110 L
b0 D
b0 .
b1000000000000000000000110 "
b1000000000000000000000110 %
#72
b1010 >
b1010 X
b1010 d
b0 ?
b0 G
b0 R
b10000 <
b10000 E
b10000 O
0#
#73
b1111 5
b1111 M
b1111 Q
b1111 Y
b1111 \
b1111 _
b1111 a
b1111 6
b1111 J
b1111 K
b1110 2
b1110 U
b1110 Z
b1110 ]
b1110 b
b1110 f
b1111 1
b1111 I
b1111 h
b1111 m
#74
b1111 >
b1111 X
b1111 d
b1111 T
b1111 `
b1110 V
b1110 ^
b11110001 -
b11110001 H
b11110001 n
#75
b11101 W
b11101 [
#76
1#
#77
b10000 !
b10000 0
b10000 A
b10000 l
#78
b10100 4
b10100 P
b10100 k
b10100 /
b10100 B
b10100 C
b10100 N
#79
b1 *
b1 i
b1 +
b1 e
b0 3
b0 F
b1 ;
b1 L
b100 D
b1 .
b10000000000000001 "
b10000000000000001 %
b1111 2
b1111 U
b1111 Z
b1111 ]
b1111 b
b1111 f
#80
b1 5
b1 M
b1 Q
b1 Y
b1 \
b1 _
b1 a
19
b1111 V
b1111 ^
b11000 <
b11000 E
b11000 O
0#
#81
b1 6
b1 J
b1 K
b1 >
b1 X
b1 d
b1 V
b1 ^
b1 T
b1 `
b1 1
b1 I
b1 h
b1 m
b10000 W
b10000 [
#82
b11111111 -
b11111111 H
b11111111 n
#84
1#
#85
b10100 !
b10100 0
b10100 A
b10100 l
#86
b11000 4
b11000 P
b11000 k
b11000 /
b11000 B
b11000 C
b11000 N
#87
b10 )
b10 g
b10 +
b10 e
b10 3
b10 F
b1000 D
b10 .
b10000000100000001000000001 "
b10000000100000001000000001 %
#88
b10000 >
b10000 X
b10000 d
09
b1 ?
b1 G
b1 R
b100000 <
b100000 E
b100000 O
0#
#89
b1010 2
b1010 U
b1010 Z
b1010 ]
b1010 b
b1010 f
#90
b1011 S
b1011 c
b0 V
b0 ^
#91
b1011 >
b1011 X
b1011 d
b1011 W
b1011 [
#92
1#
#93
b11000 !
b11000 0
b11000 A
b11000 l
#94
b11100 4
b11100 P
b11100 k
b11100 /
b11100 B
b11100 C
b11100 N
#95
b0 )
b0 g
b110 *
b110 i
b11 +
b11 e
b111 3
b111 F
b110 ;
b110 L
b11111111111111111111111111101100 D
b11111011 .
b111111110110000000000000110 "
b111111110110000000000000110 %
b1011 2
b1011 U
b1011 Z
b1011 ]
b1011 b
b1011 f
#96
b1000 4
b1000 P
b1000 k
x'
b11111111 5
b11111111 M
b11111111 Q
b11111111 Y
b11111111 \
b11111111 _
b11111111 a
x&
b11111111 6
b11111111 J
b11111111 K
1:
0,
17
b1 V
b1 ^
b1000 <
b1000 E
b1000 O
0#
#97
b1010 >
b1010 X
b1010 d
b11111111 S
b11111111 c
b1111 V
b1111 ^
b11111111 T
b11111111 `
b1111 2
b1111 U
b1111 Z
b1111 ]
b1111 b
b1111 f
b1111 1
b1111 I
b1111 h
b1111 m
b1010 W
b1010 [
#98
b11110001 5
b11110001 M
b11110001 Q
b11110001 Y
b11110001 \
b11110001 _
b11110001 a
b11110001 6
b11110001 J
b11110001 K
b11110001 -
b11110001 H
b11110001 n
#99
1=
b0 >
b0 X
b0 d
b1 V
b1 ^
b11110001 T
b11110001 `
b0 W
b0 [
#100
1#
#101
b1000 !
b1000 0
b1000 A
b1000 l
#102
b1100 /
b1100 B
b1100 C
b1100 N
#103
b100 )
b100 g
b10 *
b10 i
b110 +
b110 e
b10 3
b10 F
b10 ;
b10 L
b11000 D
b110 .
b10000001100000010000000010 "
b10000001100000010000000010 %
#104
0'
b1111 5
b1111 M
b1111 Q
b1111 Y
b1111 \
b1111 _
b1111 a
0&
b1111 6
b1111 J
b1111 K
b1100 4
b1100 P
b1100 k
0:
1,
07
b100100 <
b100100 E
b100100 O
0#
#105
b1011 5
b1011 M
b1011 Q
b1011 Y
b1011 \
b1011 _
b1011 a
b1011 6
b1011 J
b1011 K
b1111 S
b1111 c
b101 V
b101 ^
b1111 T
b1111 `
b101 2
b101 U
b101 Z
b101 ]
b101 b
b101 f
b1011 1
b1011 I
b1011 h
b1011 m
#106
0=
b10000 >
b10000 X
b10000 d
b1 V
b1 ^
b1011 T
b1011 `
b11110101 -
b11110101 H
b11110101 n
b10000 W
b10000 [
#108
1#
#109
b1100 !
b1100 0
b1100 A
b1100 l
#110
b10000 4
b10000 P
b10000 k
b10000 /
b10000 B
b10000 C
b10000 N
#111
b0 )
b0 g
b110 *
b110 i
b0 +
b0 e
b1 3
b1 F
b110 ;
b110 L
b0 D
b0 .
b1000000000000000000000110 "
b1000000000000000000000110 %
#112
b1011 >
b1011 X
b1011 d
b0 ?
b0 G
b0 R
b10000 <
b10000 E
b10000 O
0#
#113
b10000 5
b10000 M
b10000 Q
b10000 Y
b10000 \
b10000 _
b10000 a
b10000 6
b10000 J
b10000 K
b1111 2
b1111 U
b1111 Z
b1111 ]
b1111 b
b1111 f
b10000 1
b10000 I
b10000 h
b10000 m
#114
b10000 >
b10000 X
b10000 d
b10000 T
b10000 `
b11111 S
b11111 c
b0 V
b0 ^
b11110000 -
b11110000 H
b11110000 n
#115
b11111 W
b11111 [
#116
1#
#117
b10000 !
b10000 0
b10000 A
b10000 l
#118
b10100 4
b10100 P
b10100 k
b10100 /
b10100 B
b10100 C
b10100 N
#119
b1 *
b1 i
b1 +
b1 e
b0 3
b0 F
b1 ;
b1 L
b100 D
b1 .
b10000000000000001 "
b10000000000000001 %
b10000 2
b10000 U
b10000 Z
b10000 ]
b10000 b
b10000 f
#120
b1 5
b1 M
b1 Q
b1 Y
b1 \
b1 _
b1 a
19
b10000 V
b10000 ^
b10000 S
b10000 c
b11000 <
b11000 E
b11000 O
0#
#121
b1 6
b1 J
b1 K
b1 >
b1 X
b1 d
b10001 S
b10001 c
b0 V
b0 ^
b1 T
b1 `
b1 1
b1 I
b1 h
b1 m
b10001 W
b10001 [
#122
b11111111 -
b11111111 H
b11111111 n
#124
1#
#125
b10100 !
b10100 0
b10100 A
b10100 l
#126
b11000 4
b11000 P
b11000 k
b11000 /
b11000 B
b11000 C
b11000 N
#127
b10 )
b10 g
b10 +
b10 e
b10 3
b10 F
b1000 D
b10 .
b10000000100000001000000001 "
b10000000100000001000000001 %
#128
b10001 >
b10001 X
b10001 d
09
b1 ?
b1 G
b1 R
b100000 <
b100000 E
b100000 O
0#
#129
b1011 2
b1011 U
b1011 Z
b1011 ]
b1011 b
b1011 f
#130
b1 V
b1 ^
b1011 S
b1011 c
#131
b1100 >
b1100 X
b1100 d
b1100 W
b1100 [
#132
1#
#133
b11000 !
b11000 0
b11000 A
b11000 l
#134
b11100 4
b11100 P
b11100 k
b11100 /
b11100 B
b11100 C
b11100 N
#135
b0 )
b0 g
b110 *
b110 i
b11 +
b11 e
b111 3
b111 F
b110 ;
b110 L
b11111111111111111111111111101100 D
b11111011 .
b111111110110000000000000110 "
b111111110110000000000000110 %
b1100 2
b1100 U
b1100 Z
b1100 ]
b1100 b
b1100 f
#136
b1000 4
b1000 P
b1000 k
x'
b11111111 5
b11111111 M
b11111111 Q
b11111111 Y
b11111111 \
b11111111 _
b11111111 a
x&
b11111111 6
b11111111 J
b11111111 K
1:
0,
17
b1101 S
b1101 c
b0 V
b0 ^
b1000 <
b1000 E
b1000 O
0#
#137
b1011 >
b1011 X
b1011 d
b10000 V
b10000 ^
b11111111 S
b11111111 c
b11111111 T
b11111111 `
b10000 2
b10000 U
b10000 Z
b10000 ]
b10000 b
b10000 f
b10000 1
b10000 I
b10000 h
b10000 m
b1011 W
b1011 [
#138
b11110000 5
b11110000 M
b11110000 Q
b11110000 Y
b11110000 \
b11110000 _
b11110000 a
b11110000 6
b11110000 J
b11110000 K
b11110000 -
b11110000 H
b11110000 n
#139
1=
b0 >
b0 X
b0 d
b11110000 S
b11110000 c
b11110000 T
b11110000 `
b0 W
b0 [
#140
1#
#141
b1000 !
b1000 0
b1000 A
b1000 l
#142
b1100 /
b1100 B
b1100 C
b1100 N
#143
b100 )
b100 g
b10 *
b10 i
b110 +
b110 e
b10 3
b10 F
b10 ;
b10 L
b11000 D
b110 .
b10000001100000010000000010 "
b10000001100000010000000010 %
#144
0'
b10000 5
b10000 M
b10000 Q
b10000 Y
b10000 \
b10000 _
b10000 a
0&
b10000 6
b10000 J
b10000 K
b1100 4
b1100 P
b1100 k
0:
1,
07
b100100 <
b100100 E
b100100 O
0#
#145
b1100 5
b1100 M
b1100 Q
b1100 Y
b1100 \
b1100 _
b1100 a
b1100 6
b1100 J
b1100 K
b0 V
b0 ^
b10101 S
b10101 c
b10000 T
b10000 `
b101 2
b101 U
b101 Z
b101 ]
b101 b
b101 f
b1100 1
b1100 I
b1100 h
b1100 m
#146
0=
b10001 >
b10001 X
b10001 d
b1101 S
b1101 c
b100 V
b100 ^
b1100 T
b1100 `
b11110100 -
b11110100 H
b11110100 n
b10001 W
b10001 [
#148
1#
#149
b1100 !
b1100 0
b1100 A
b1100 l
#150
b10000 4
b10000 P
b10000 k
b10000 /
b10000 B
b10000 C
b10000 N
#151
b0 )
b0 g
b110 *
b110 i
b0 +
b0 e
b1 3
b1 F
b110 ;
b110 L
b0 D
b0 .
b1000000000000000000000110 "
b1000000000000000000000110 %
#152
b1100 >
b1100 X
b1100 d
b0 ?
b0 G
b0 R
b10000 <
b10000 E
b10000 O
0#
#153
b10001 5
b10001 M
b10001 Q
b10001 Y
b10001 \
b10001 _
b10001 a
b10001 6
b10001 J
b10001 K
b10000 2
b10000 U
b10000 Z
b10000 ]
b10000 b
b10000 f
b10001 1
b10001 I
b10001 h
b10001 m
#154
b10001 >
b10001 X
b10001 d
b10001 T
b10001 `
b10000 V
b10000 ^
b10001 S
b10001 c
b11101111 -
b11101111 H
b11101111 n
#155
b100001 W
b100001 [
#156
1#
#157
b10000 !
b10000 0
b10000 A
b10000 l
#158
b10100 4
b10100 P
b10100 k
b10100 /
b10100 B
b10100 C
b10100 N
#159
b1 *
b1 i
b1 +
b1 e
b0 3
b0 F
b1 ;
b1 L
b100 D
b1 .
b10000000000000001 "
b10000000000000001 %
b10001 2
b10001 U
b10001 Z
b10001 ]
b10001 b
b10001 f
#160
b1 5
b1 M
b1 Q
b1 Y
b1 \
b1 _
b1 a
19
b10001 V
b10001 ^
b11000 <
b11000 E
b11000 O
0#
#161
b1 6
b1 J
b1 K
b1 >
b1 X
b1 d
b1 V
b1 ^
b1 T
b1 `
b1 1
b1 I
b1 h
b1 m
b10010 W
b10010 [
#162
b11111111 -
b11111111 H
b11111111 n
#164
1#
#165
b10100 !
b10100 0
b10100 A
b10100 l
#166
b11000 4
b11000 P
b11000 k
b11000 /
b11000 B
b11000 C
b11000 N
#167
b10 )
b10 g
b10 +
b10 e
b10 3
b10 F
b1000 D
b10 .
b10000000100000001000000001 "
b10000000100000001000000001 %
#168
b10010 >
b10010 X
b10010 d
09
b1 ?
b1 G
b1 R
b100000 <
b100000 E
b100000 O
0#
#169
b1100 2
b1100 U
b1100 Z
b1100 ]
b1100 b
b1100 f
#170
b1101 S
b1101 c
b0 V
b0 ^
#171
b1101 >
b1101 X
b1101 d
b1101 W
b1101 [
#172
1#
#173
b11000 !
b11000 0
b11000 A
b11000 l
#174
b11100 4
b11100 P
b11100 k
b11100 /
b11100 B
b11100 C
b11100 N
#175
b0 )
b0 g
b110 *
b110 i
b11 +
b11 e
b111 3
b111 F
b110 ;
b110 L
b11111111111111111111111111101100 D
b11111011 .
b111111110110000000000000110 "
b111111110110000000000000110 %
b1101 2
b1101 U
b1101 Z
b1101 ]
b1101 b
b1101 f
#176
b1000 4
b1000 P
b1000 k
x'
b11111111 5
b11111111 M
b11111111 Q
b11111111 Y
b11111111 \
b11111111 _
b11111111 a
x&
b11111111 6
b11111111 J
b11111111 K
1:
0,
17
b1 V
b1 ^
b1000 <
b1000 E
b1000 O
0#
#177
b1100 >
b1100 X
b1100 d
b11111111 S
b11111111 c
b10001 V
b10001 ^
b11111111 T
b11111111 `
b10001 2
b10001 U
b10001 Z
b10001 ]
b10001 b
b10001 f
b10001 1
b10001 I
b10001 h
b10001 m
b1100 W
b1100 [
#178
b11101111 5
b11101111 M
b11101111 Q
b11101111 Y
b11101111 \
b11101111 _
b11101111 a
b11101111 6
b11101111 J
b11101111 K
b11101111 -
b11101111 H
b11101111 n
#179
1=
b0 >
b0 X
b0 d
b1 V
b1 ^
b11101111 T
b11101111 `
b0 W
b0 [
#180
1#
#181
b1000 !
b1000 0
b1000 A
b1000 l
#182
b1100 /
b1100 B
b1100 C
b1100 N
#183
b100 )
b100 g
b10 *
b10 i
b110 +
b110 e
b10 3
b10 F
b10 ;
b10 L
b11000 D
b110 .
b10000001100000010000000010 "
b10000001100000010000000010 %
#184
0'
b10001 5
b10001 M
b10001 Q
b10001 Y
b10001 \
b10001 _
b10001 a
0&
b10001 6
b10001 J
b10001 K
b1100 4
b1100 P
b1100 k
0:
1,
07
b100100 <
b100100 E
b100100 O
0#
#185
b1101 5
b1101 M
b1101 Q
b1101 Y
b1101 \
b1101 _
b1101 a
b1101 6
b1101 J
b1101 K
b10101 S
b10101 c
b10001 T
b10001 `
b101 2
b101 U
b101 Z
b101 ]
b101 b
b101 f
b1101 1
b1101 I
b1101 h
b1101 m
#186
0=
b10010 >
b10010 X
b10010 d
b101 V
b101 ^
b1101 S
b1101 c
b1101 T
b1101 `
b11110011 -
b11110011 H
b11110011 n
b10010 W
b10010 [
#188
1#
#189
b1100 !
b1100 0
b1100 A
b1100 l
#190
b10000 4
b10000 P
b10000 k
b10000 /
b10000 B
b10000 C
b10000 N
#191
b0 )
b0 g
b110 *
b110 i
b0 +
b0 e
b1 3
b1 F
b110 ;
b110 L
b0 D
b0 .
b1000000000000000000000110 "
b1000000000000000000000110 %
#192
b1101 >
b1101 X
b1101 d
b0 ?
b0 G
b0 R
b10000 <
b10000 E
b10000 O
0#
#193
b10010 5
b10010 M
b10010 Q
b10010 Y
b10010 \
b10010 _
b10010 a
b10010 6
b10010 J
b10010 K
b10001 2
b10001 U
b10001 Z
b10001 ]
b10001 b
b10001 f
b10010 1
b10010 I
b10010 h
b10010 m
#194
b10010 >
b10010 X
b10010 d
b10010 T
b10010 `
b10011 S
b10011 c
b10000 V
b10000 ^
b11101110 -
b11101110 H
b11101110 n
#195
b100011 W
b100011 [
#196
1#
#197
b10000 !
b10000 0
b10000 A
b10000 l
#198
b10100 4
b10100 P
b10100 k
b10100 /
b10100 B
b10100 C
b10100 N
#199
b1 *
b1 i
b1 +
b1 e
b0 3
b0 F
b1 ;
b1 L
b100 D
b1 .
b10000000000000001 "
b10000000000000001 %
b10010 2
b10010 U
b10010 Z
b10010 ]
b10010 b
b10010 f
#200
b1 5
b1 M
b1 Q
b1 Y
b1 \
b1 _
b1 a
19
b10010 V
b10010 ^
b10010 S
b10010 c
b11000 <
b11000 E
b11000 O
0#
#201
b1 6
b1 J
b1 K
b1 >
b1 X
b1 d
b10011 S
b10011 c
b0 V
b0 ^
b1 T
b1 `
b1 1
b1 I
b1 h
b1 m
b10011 W
b10011 [
#202
b11111111 -
b11111111 H
b11111111 n
#204
1#
#205
b10100 !
b10100 0
b10100 A
b10100 l
#206
b11000 4
b11000 P
b11000 k
b11000 /
b11000 B
b11000 C
b11000 N
#207
b10 )
b10 g
b10 +
b10 e
b10 3
b10 F
b1000 D
b10 .
b10000000100000001000000001 "
b10000000100000001000000001 %
#208
b10011 >
b10011 X
b10011 d
09
b1 ?
b1 G
b1 R
b100000 <
b100000 E
b100000 O
0#
#209
b1101 2
b1101 U
b1101 Z
b1101 ]
b1101 b
b1101 f
#210
b1 V
b1 ^
b1101 S
b1101 c
#211
b1110 >
b1110 X
b1110 d
b1110 W
b1110 [
#212
1#
#213
b11000 !
b11000 0
b11000 A
b11000 l
#214
b11100 4
b11100 P
b11100 k
b11100 /
b11100 B
b11100 C
b11100 N
#215
b0 )
b0 g
b110 *
b110 i
b11 +
b11 e
b111 3
b111 F
b110 ;
b110 L
b11111111111111111111111111101100 D
b11111011 .
b111111110110000000000000110 "
b111111110110000000000000110 %
b1110 2
b1110 U
b1110 Z
b1110 ]
b1110 b
b1110 f
#216
b1000 4
b1000 P
b1000 k
x'
b11111111 5
b11111111 M
b11111111 Q
b11111111 Y
b11111111 \
b11111111 _
b11111111 a
x&
b11111111 6
b11111111 J
b11111111 K
1:
0,
17
b1111 S
b1111 c
b0 V
b0 ^
b1000 <
b1000 E
b1000 O
0#
#217
b1101 >
b1101 X
b1101 d
b10010 V
b10010 ^
b11111111 S
b11111111 c
b11111111 T
b11111111 `
b10010 2
b10010 U
b10010 Z
b10010 ]
b10010 b
b10010 f
b10010 1
b10010 I
b10010 h
b10010 m
b1101 W
b1101 [
#218
b11101110 5
b11101110 M
b11101110 Q
b11101110 Y
b11101110 \
b11101110 _
b11101110 a
b11101110 6
b11101110 J
b11101110 K
b11101110 -
b11101110 H
b11101110 n
#219
1=
b0 >
b0 X
b0 d
b11111110 S
b11111110 c
b10 V
b10 ^
b11101110 T
b11101110 `
b0 W
b0 [
#220
1#
#221
b1000 !
b1000 0
b1000 A
b1000 l
#222
b1100 /
b1100 B
b1100 C
b1100 N
